{
    "recipes": [
        {
            "id": 1,
            "title": "Pasta",
            "image": "pasta.jpg",
            "time": 30,
            "description": "Pasta with tomato sauce",
            "vegan": false
        },
        {
            "id": 2,
            "title": "Salad",
            "image": "salad.jpg",
            "time": 15,
            "description": "Salad with lettuce, tomato, cucumber and olives",
            "vegan": true
        },
        {
            "id": 3,
            "title": "Pizza",
            "image": "pizza.jpg",
            "time": 45,
            "description": "Pizza with tomato sauce, cheese and pepperoni",
            "vegan": false
        },
        {
            "id": 4,
            "title": "Soup",
            "image": "soup.jpg",
            "time": 30,
            "description": "Soup with vegetables",
            "vegan": true
        },
        {
            "id": 5,
            "title": "Burger",
            "image": "burger.jpg",
            "time": 30,
            "description": "Burger with beef, cheese, lettuce, tomato and onion",
            "vegan": false
        },
        {
            "id": 6,
            "title": "Sandwich",
            "image": "sandwich.jpg",
            "time": 10,
            "description": "Sandwich with ham, cheese, lettuce and tomato",
            "vegan": false
        },
        {
            "id": 7,
            "title": "Tacos",
            "image": "tacos.jpg",
            "time": 30,
            "description": "Tacos with beef, lettuce, tomato, cheese and sour cream",
            "vegan": false
        },
        {
            "id": 8,
            "title": "Sushi",
            "image": "sushi.jpg",
            "time": 60,
            "description": "Sushi with rice, salmon, avocado and cucumber",
            "vegan": false
        },
        {
            "id": 9,
            "title": "Pancakes",
            "image": "pancakes.jpg",
            "time": 30,
            "description": "Pancakes with maple syrup",
            "vegan": true
        },
        {
            "id": 10,
            "title": "Cake",
            "image": "cake.jpg",
            "time": 60,
            "description": "Cake with chocolate frosting",
            "vegan": false
        }
    ]
}